{
    "orderStatus": {
        "buyerCode": "95369042",
        "createdAt": "2022-05-19",
        "depositAmount": 0,
        "holdAmount": 0,
        "orderCode": "098466740833",
        "paymentStatusCode": "NOT_PAID",
        "payments": [
            {
                "active": true,
                "agentPaymentKey": "0bb32bce-fca9-70eb-b51e-034600000404",
                "attributes": {},
                "cardAuthInfo": {},
                "depositAmount": 0,
                "guid": "7f186c06-3b59-439c-b25e-378e3fb4cea0",
                "holdAmount": 0,
                "paymentUrl": "https://ps-qa.utkonos.dev/payment/start?txn=7f186c06-3b59-439c-b25e-378e3fb4cea0",
                "provider": "card",
                "refundAmount": 0,
                "refunds": [],
                "statusCode": "AWAITING",
                "statusText": "Ожидание платежа",
                "targetAmount": 269700,
                "typeСode": "card"
            }
        ],
        "refunds": [],
        "targetAmount": 269700
    }
}