[ {
  "uid" : "bbb829e2570eca06",
  "name" : "Проверка getPaymentStatus включена",
  "time" : {
    "start" : 1652960711721,
    "stop" : 1652960786052,
    "duration" : 74331
  },
  "status" : "broken",
  "severity" : "normal"
} ]