{
  "total" : 1,
  "items" : [ {
    "uid" : "e387fa4bb326b54ea8c19c2822aba374",
    "name" : "tests",
    "statistic" : {
      "failed" : 0,
      "broken" : 1,
      "skipped" : 0,
      "passed" : 0,
      "unknown" : 0,
      "total" : 1
    }
  } ]
}